{
  "web": {
    "client_email": "146139913792@developer.gserviceaccount.com",
    "private_key": "11eb8cc6fb16dd93fbebb5cdd412b26ca8e0374c",
    "client_id": "146139913792.apps.googleusercontent.com",
    "project_id": "publiuslogic",
    "auth_uri": "https://accounts.google.com/o/oauth2/auth",
    "token_uri": "https://oauth2.googleapis.com/token",
    "auth_provider_x509_cert_url": "https://www.googleapis.com/oauth2/v1/certs",
    "client_secret": "ALkTQDFAU4cpIrAVRjtxJGWL",
    "redirect_uris": ["https://publiuslogic-old.netlify.app"],
    "javascript_origins": ["https://publiuslogic-old.netlify.app"]
  }
}
