{
  "type": "service_account",
  "project_id": "publiuslogic",
  "private_key_id": "66342d3737068bc665e9ed655423f7b7dab2706e",
  "private_key": "-----BEGIN PRIVATE KEY-----\nMIIEvgIBADANBgkqhkiG9w0BAQEFAASCBKgwggSkAgEAAoIBAQDFJFqOuenznVZw\nsOEjo99Q+ArJzfMwZKiqsywfxsHAZmmcThSLY8cayJEYslARzPnOqbRhil/ZJ6Wh\nHAAg6ysgKjgjS0KJ8uWieIwDVp/hKGSISGv14XQFjHyBO7JXH2x3g0kpQAb0F2lD\nbzP6rnyvU1VI1yjGQ3gwHzNed/RM2Ov6IX+Rv0N89B9shW5NcJBqCbKe3dU5fMWS\nRVFYwPUoV3QCWLZw6cwOmXO/N68bcYDwuTKAJJE2xeeXdIKGMMQrL59LCFS56Ws9\nfdywGyCHZNWifJaPp7WrCgTVXfjo6zU8dzG+0uQ/nNkLiNKIhyfAlg2UCvNGiKGx\nLWfAqbhBAgMBAAECggEACiyE8zkF/q61KiNUDcj5uo3VJLKuZRDKIZEV6wfmB4i2\n1OcJ/rg7VhcEDJsQhcf8cQgSCTdLw1hdSbIOZvnWo8DPXTGXm/3p5ZdvW7Fp69lF\nTZaLN8kW+ehU+T28R5cVZm+N5C/r4UdKBT26bX/5avo+fFVaQy0dM+0680T2hHaq\n0LZlAL4G45CwioSWOVxTIU3MOk13VfTPhJAvDtsfunxP1hdKW39YcD6YEASNKZFA\nCc4p+aS2IhxLxFLrf/7CD+a3JhXoLsDzEe/PeBZ3ccNsG2ASd7VSgNLGUcmX0d8I\nlnQqtqvgypKHqEa5qtJRaaVBFi4eTMVYxbRYSeg2RwKBgQD0UL2UL4AHizPClkzs\n5/+SBh2bvGPr2vr4QXJTj8Uepbkw2+mp0ec9tqtXczAjHwMon6Z7fUaRPKgm0QXy\nCT+Wn0oppwLeOy8gybdBeD5sp5kD4EqRzecYcTy6nlj69nPHnPxT59adx+33OO5F\nyfpZEN8fGNdxdAgQ3ZNGCN+R2wKBgQDOkgyHxsmtCFOf0gKbkGrp9OOIrb4fwlUi\nM0OfiLVMzqJgL15M3HF2A7vg/ApiXAxUYGXaXGVKGs66aHJ9Crefgzvh5OJpAoVr\n2m9EEU1nfz/mynHdAqkr993UiSanXy7EkVtdy5ZFjOPi6N2kQWiSSaHo4pRrIsyl\nCD++kZc/EwKBgQDz8FoZx4OyBI9dzuxn7w0DJBAUG3o5WKAVmGMqg/Zxr07FNg6M\nfQTCXc2et2hs6N4ihaWYz3DSOxo6B6JEFG/lWI6YICWA9t8Lgdz0Bbdujbj+YciS\n5F/Fy+qy+sAldEYOHPTkYiurxqAXpERkclMA8xOU3RzgLtaO4G3YE6wG2QKBgFA2\nFfeDETzHRvGAMtMFOP6vwMqJ7JGYfEZTcaa5Bu1UL2j5+7wMvWH+AS5TsBSReZgp\n9mLcDdjAoBVyCULUroiaBN6qaeAswnIm152uuke9+ao8YgpXxij0jobA2umS5C4f\n40KAk1Fea/7oPWhSnbBwNxafJNKVKLHMijQNhJVRAoGBAO5ZlEALD8I6JHA3lJZ1\nWT6sfm5oxO8ehE+gfqzwRjWm1I/6le6sXNxn3fuJP8HNKJ9Fhx3gTsC42ldKRlcn\noVT83n7+SlDGPi81XL/HLNbewlRqWIt3/L4u3pgwIhpYz9cZgx4fM+afI2ins7Bm\nli7PCHXV3/uHnsZMCMh29jbP\n-----END PRIVATE KEY-----\n",
  "client_email": "contact@publiuslogic.iam.gserviceaccount.com",
  "client_id": "108936361657096645201",
  "auth_uri": "https://accounts.google.com/o/oauth2/auth",
  "token_uri": "https://oauth2.googleapis.com/token",
  "auth_provider_x509_cert_url": "https://www.googleapis.com/oauth2/v1/certs",
  "client_x509_cert_url": "https://www.googleapis.com/robot/v1/metadata/x509/contact%40publiuslogic.iam.gserviceaccount.com"
}
